# --> Including file '/workspace/build/BOOLE/BOOLE_HEAD/Digi/Boole/options/boole-minimalist-upgrade-reprocessing.py'
# --> Including file '/cvmfs/lhcb.cern.ch/lib/lhcb/DBASE/AppConfig/v3r352/options/Boole/Default.py'
# <-- End of file '/cvmfs/lhcb.cern.ch/lib/lhcb/DBASE/AppConfig/v3r352/options/Boole/Default.py'
# --> Including file '/cvmfs/lhcb.cern.ch/lib/lhcb/DBASE/AppConfig/v3r352/options/Boole/xdigi.py'
# <-- End of file '/cvmfs/lhcb.cern.ch/lib/lhcb/DBASE/AppConfig/v3r352/options/Boole/xdigi.py'
# <-- End of file '/workspace/build/BOOLE/BOOLE_HEAD/Digi/Boole/options/boole-minimalist-upgrade-reprocessing.py'
# --> Including file '/workspace/build/BOOLE/BOOLE_HEAD/Digi/Boole/tests/options/boole-upgrade-reprocessing-xdst.py'
# <-- End of file '/workspace/build/BOOLE/BOOLE_HEAD/Digi/Boole/tests/options/boole-upgrade-reprocessing-xdst.py'
# applying configuration of Boole
# --> Including file '/workspace/build/BOOLE/BOOLE_HEAD/Digi/Boole/options/Boole-RunFromXDST.py'
# <-- End of file '/workspace/build/BOOLE/BOOLE_HEAD/Digi/Boole/options/Boole-RunFromXDST.py'
# WARNING: Property 'DataType' is set in both 'Boole' and 'LHCbApp', using 'Boole.DataType'
# /***** User Boole/Boole ****************************************************************************
# |-DatasetName         = 'reprocess'  (default: 'Boole')
# |-DetectorLink        = ['VP', 'UT', 'FT', 'Tr', 'Magnet']
# |                     (default: ['PuVeto', 'Velo', 'TT', 'IT', 'OT', 'Tr', 'Rich1', 'Rich2', 'Spd', 'Prs', 'Ecal', 'Hcal', 'Muon', 'L0'])
# |-DetectorInit        = {'MUON': ['Muon'], 'DATA': ['Data']}  (default: {'MUON': ['Muon'], 'DATA': ['Data']})
# |-Histograms          = 'Default'
# |-SkipEvents          = 0
# |-VeloTell1Processing = True
# |-InputDataType       = 'XDST'  (default: 'SIM')
# |-ProductionMode      = False
# |-SplitRawEventFormat = None
# |-FilterSequence      = []  (default: [])
# |-TAESubdets          = ['Calo', 'Muon']  (default: ['Calo', 'Muon'])
# |-Outputs             = ['DIGI']  (default: ['DIGI'])
# |-DetectorDigi        = ['VP', 'UT', 'FT', 'Magnet']
# |                     (default: ['PuVeto', 'Velo', 'TT', 'IT', 'OT', 'Rich1', 'Rich2', 'Spd', 'Prs', 'Ecal', 'Hcal', 'Muon', 'L0'])
# |-MainSequence        = []  (default: [])
# |-DisableTiming       = False
# |-DigiType            = 'Extended'  (default: 'Default')
# |-MoniSequence        = ['VP', 'UT', 'FT']  (default: [])
# |-DetectorMoni        = ['VP', 'UT', 'FT', 'Magnet']
# |                     (default: ['PuVeto', 'Velo', 'TT', 'IT', 'OT', 'Rich1', 'Rich2', 'Spd', 'Prs', 'Ecal', 'Hcal', 'Muon', 'L0', 'MC'])
# |-TAEPrev             = 0
# |-EnablePack          = True
# |-DigiSequence        = ['VP', 'UT', 'FT']  (default: [])
# |-OutputLevel         = 3
# |-EvtMax              = 10  (default: -1)
# |-TAENext             = 0
# |-UseSpillover        = False
# |-MergeGenFSR         = False
# |-EnableL0            = False
# |-CondDBtag           = ''
# |-InitSequence        = ['Data', 'Muon']  (default: [])
# |-DataType            = 'Upgrade'  (default: '2015')
# |-NoWarnings          = False
# |-SiG4EnergyDeposit   = True
# |-WriteFSR            = True
# |-LinkSequence        = ['VP', 'UT', 'FT', 'Tr']  (default: [])
# |-SpilloverPaths      = ['Prev', 'PrevPrev', 'Next', 'NextNext']  (default: [])
# |-DDDBtag             = ''
# |-Monitors            = []  (default: [])
# \----- (End of User Boole/Boole) -------------------------------------------------------------------
# DigiWriter.ItemList    = ['/Event/Gen/Header#1', '/Event/MC/Header#1', '/Event/MC/DigiHeader#1', '/Event/DAQ/RawEvent#1', '/Event/Gen/BeamParameters#1', '/Event/Gen/Collisions#1', '/Event/pSim/MCVertices#1', '/Event/pSim/MCParticles#1', '/Event/Link/Raw/VP/Digits#1', '/Event/Link/Raw/UT/Clusters#1', '/Event/Link/Raw/FT/LiteClusters#1', '/Event/Link/Raw/FT/LiteClustersWithSpillover#1', '/Event/MC/TrackInfo#1', '/Event/Link/Raw/VP/Digits2MCHits#1', '/Event/Link/Raw/UT/Clusters2MCHits#1', '/Event/Link/Raw/FT/LiteClusters2MCHits#1', '/Event/Link/Raw/FT/LiteClusters2MCHitsWithSpillover#1', '/Event/pSim/VP/Hits#1', '/Event/pSim/FT/Hits#1', '/Event/pSim/UT/Hits#1']
# DigiWriter.OptItemList = ['/Event/Gen/HepMCEvents#1']
ApplicationMgr    SUCCESS
====================================================================================================================================
                                                   Welcome to Boole version HEAD
                                          running on lbbuild49.cern.ch on Sun Feb 11 04:13:53 2018
====================================================================================================================================
ApplicationMgr       INFO Application Manager Configured successfully
ToolSvc.GitDDDB      INFO opening Git repository '/cvmfs/lhcb.cern.ch/lib/lhcb/git-conddb/DDDB.git'
ToolSvc.GitDDDB      INFO using commit 'upgrade/dddb-20170301' corresponding to d277f5e21d6fa797f89330eb6205859971e46fe9
ToolSvc.GitSIMCOND   INFO opening Git repository '/cvmfs/lhcb.cern.ch/lib/lhcb/git-conddb/SIMCOND.git'
ToolSvc.GitSIMCOND   INFO using commit 'upgrade/sim-20171123-vc-md100' corresponding to d3fcb1a25f8bf945af011ce6485d8a7dc261f063
DetectorPersist...   INFO Added successfully Conversion service:XmlCnvSvc
DetectorDataSvc   SUCCESS Detector description database: git:/lhcb.xml
RndmGenSvc.Engine    INFO Generator engine type:CLHEP::RanluxEngine
RndmGenSvc.Engine    INFO Current Seed:1234567 Luxury:3
RndmGenSvc           INFO Using Random engine:HepRndm::Engine<CLHEP::RanluxEngine>
TimingAuditor.T...   INFO This machine has a speed about   2.70 times the speed of a 2.8 GHz Xeon.
BooleSequencer       INFO Member list: ProcessPhase/Init, ProcessPhase/Digi, ProcessPhase/Link, ProcessPhase/Moni, ProcessPhase/Filter
Init                 INFO Member list: GaudiSequencer/InitBooleSeq, GaudiSequencer/InitDataSeq, GaudiSequencer/InitMuonSeq
InitBooleSeq         INFO Member list: GaudiSequencer/XDSTLoverHandler, BooleInit, GaudiSequencer/SpilloverHandler
XDSTLoverHandler     INFO Member list: TESCheck/XDSTLoader, EventNodeKiller/XDSTKiller
BooleInit         SUCCESS ==================================================================
BooleInit         SUCCESS Requested to process 10 events
BooleInit         SUCCESS ==================================================================
RootHistSvc          INFO Writing ROOT histograms to: reprocess-10ev-histos.root
HistogramPersis...   INFO Added successfully Conversion service:RootHistSvc
HistogramDataSvc     INFO Added stream file:/workspace/build/PARAM/ParamFiles/v8r22/data/muonlow-G4.root as LowEnergy
HistogramDataSvc     INFO Added stream file:/workspace/build/PARAM/ParamFiles/v8r22/data/muonflat-G4.root as MuonFlatSpillover
SpilloverHandler     INFO Member list: TESCheck/SpilloverLoader, EventNodeKiller/SpilloverKiller
InitDataSeq          INFO Member list:
InitMuonSeq          INFO Member list: MuonBackground/MuonLowEnergy, MuonBackground/MuonFlatSpillover
EventClockSvc.F...   INFO Event times generated from 0 with steps of 0
EventClockSvc.F...   INFO Run numbers generated from 0 every 0 events
RFileCnv             INFO opening Root file "/workspace/build/PARAM/ParamFiles/v8r22/data/muonlow-G4.root" for reading
MuonLowEnergy        INFO The low energy background is run by default for main events plus (if any) spillover events (max 4)
RFileCnv             INFO opening Root file "/workspace/build/PARAM/ParamFiles/v8r22/data/muonflat-G4.root" for reading
Digi                 INFO Member list: GaudiSequencer/DigiVPSeq, GaudiSequencer/DigiUTSeq, GaudiSequencer/DigiFTSeq
DigiVPSeq            INFO Member list: VPDepositCreator, VPDigitCreator, VPSuperPixelBankEncoder
DeVP                 INFO There are 208 sensors (left: 104, right: 104)
DigiUTSeq            INFO Member list: MCSTDepositCreator/MCUTDepositCreator, MCSTDigitCreator/MCUTDigitCreator, STDigitCreator/UTDigitCreator, STClusterCreator/UTClusterCreator, STClusterKiller/UTClusterKiller, STClustersToRawBankAlg/createUTRawBuffer
MagneticFieldSvc     INFO Opened magnetic field file : /afs/cern.ch/lhcb/software/DEV/nightlies/DBASE/FieldMap/v5r7/cdf/field.v5r0.c1.down.cdf
MagneticFieldSvc     INFO Opened magnetic field file : /afs/cern.ch/lhcb/software/DEV/nightlies/DBASE/FieldMap/v5r7/cdf/field.v5r0.c2.down.cdf
MagneticFieldSvc     INFO Opened magnetic field file : /afs/cern.ch/lhcb/software/DEV/nightlies/DBASE/FieldMap/v5r7/cdf/field.v5r0.c3.down.cdf
MagneticFieldSvc     INFO Opened magnetic field file : /afs/cern.ch/lhcb/software/DEV/nightlies/DBASE/FieldMap/v5r7/cdf/field.v5r0.c4.down.cdf
MagneticFieldSvc     INFO Map scaled by factor 1 with polarity internally used: -1 signed relative current: -1
UTClusterCreator     INFO Loading cuts tagged as Data11
ToolSvc.UTKiller     INFO Adding Tool: type: STRndmEffSelector / name: Selector
DigiFTSeq            INFO Member list: FTMCHitSpillMerger, MCFTDepositCreator, MCFTDigitCreator, FTClusterCreator, FTRawBankEncoder, FTRawBankDecoder, MCFTDepositMonitor, FTLiteClusterMonitor
DeFTDetector         INFO Current FT geometry version =   61
MCFTDepositCrea...   INFO Selecting 50/fb attenuation map.
Link                 INFO Member list: GaudiSequencer/LinkVPSeq, GaudiSequencer/LinkUTSeq, GaudiSequencer/LinkFTSeq, GaudiSequencer/LinkTrSeq
LinkVPSeq            INFO Member list: VPDigitLinker
LinkUTSeq            INFO Member list: STDigit2MCHitLinker/UTDigitLinker, STCluster2MCHitLinker/UTClusterLinker, STCluster2MCParticleLinker/UTTruthLinker
LinkFTSeq            INFO Member list:
LinkTrSeq            INFO Member list: BuildMCTrackInfo
Moni                 INFO Member list: GaudiSequencer/MoniVPSeq, GaudiSequencer/MoniUTSeq, GaudiSequencer/MoniFTSeq
MoniVPSeq            INFO Member list:
MoniUTSeq            INFO Member list: MCSTDepositMonitor/MCUTDepositMonitor, MCSTDigitMonitor/MCUTDigitMonitor, STDigitMonitor/UTDigitMonitor, ST::STClusterMonitor/UTClusterMonitor, MCParticle2MCHitAlg/MCP2UTMCHitAlg, STEffChecker/UTEffChecker
UTEffChecker.MC...   INFO MCParticle Momentum cut     : 1 GeV/c < P < 1.79769e+305 GeV/c
UTEffChecker.MC...   INFO            Beta * gamma cut : 1 < beta*gamma
UTEffChecker.MC...   INFO            Eta cut          : -1.79769e+308 < P < 1.79769e+308
MoniFTSeq            INFO Member list: MCFTDepositMonitor
Filter               INFO OR Member list:
PrepareDIGI          INFO Member list: PackMCVertex, PackMCParticle, PackMCParticle, PackMCVertex, DataPacking::Pack<LHCb::MCVPHitPacker>/MCVPHitPacker, DataPacking::Pack<LHCb::MCUTHitPacker>/MCUTHitPacker, DataPacking::Pack<LHCb::MCFTHitPacker>/MCFTHitPacker
FileRecordPersi...   INFO Added successfully Conversion service:FileRecordCnvSvc
FSROutputStream...   INFO Data source: FileRecordDataSvc output: DATAFILE='PFN:reprocess-10ev-Extended.digi' SVC='FileRecordCnvSvc' OPT='REC'
EventPersistenc...   INFO Added successfully Conversion service:RootCnvSvc
DigiWriter           INFO Data source: EventDataSvc output: DATAFILE='PFN:reprocess-10ev-Extended.digi' SVC='RootCnvSvc' OPT='REC'
EventSelector        INFO Stream:EventSelector.DataStreamTool_1 Def:DATAFILE='root://eoslhcb.cern.ch//eos/lhcb/grid/prod/lhcb/swtest/lhcb/swtest/SciFi-v61/Brunel-13104012-100ev-20170301.xdst' SVC='Gaudi::RootEvtSelector' OPT='READ'
ApplicationMgr       INFO Application Manager Initialized successfully
ApplicationMgr       INFO Application Manager Started successfully
BooleInit            INFO Evt 1,  Run 1,  Nr. in job = 1
MuonFlatSpillover    INFO  luminosity factor 5.40302 compared to default 2*10^32 cm-2 s-1
BooleInit            INFO Evt 2,  Run 1,  Nr. in job = 2
BooleInit            INFO Evt 3,  Run 1,  Nr. in job = 3
BooleInit            INFO Evt 4,  Run 1,  Nr. in job = 4
BooleInit            INFO Evt 5,  Run 1,  Nr. in job = 5
BooleInit            INFO Evt 6,  Run 1,  Nr. in job = 6
BooleInit            INFO Evt 7,  Run 1,  Nr. in job = 7
BooleInit            INFO Evt 8,  Run 1,  Nr. in job = 8
BooleInit            INFO Evt 9,  Run 1,  Nr. in job = 9
BooleInit            INFO Evt 10,  Run 1,  Nr. in job = 10
ApplicationMgr       INFO Application Manager Stopped successfully
UnpackMCVPHits    SUCCESS Number of counters : 1
 |    Counter                                      |     #     |    sum     | mean/eff^* | rms/err^*  |     min     |     max     |
 | "# UnPackedData"                                |        10 |      34585 |     3458.5 |     1128.8 |      1601.0 |      5289.0 |
UnpackMCUTHits    SUCCESS Number of counters : 1
 |    Counter                                      |     #     |    sum     | mean/eff^* | rms/err^*  |     min     |     max     |
 | "# UnPackedData"                                |        10 |      18817 |     1881.7 |     519.85 |      988.00 |      2643.0 |
UnpackMCFTHits    SUCCESS Number of counters : 1
 |    Counter                                      |     #     |    sum     | mean/eff^* | rms/err^*  |     min     |     max     |
 | "# UnPackedData"                                |        10 |      52382 |     5238.2 |     1470.4 |      2380.0 |      7325.0 |
BooleInit         SUCCESS ==================================================================
BooleInit         SUCCESS 10 events processed
BooleInit         SUCCESS ==================================================================
UTClusterKiller      INFO Fraction of clusters killed 0.501982 %
UTClusterKiller   SUCCESS Number of counters : 2
 |    Counter                                      |     #     |    sum     | mean/eff^* | rms/err^*  |     min     |     max     |
 | "Dead"                                          |        95 |         95 |     1.0000 |     0.0000 |      1.0000 |      1.0000 |
 | "Processed"                                     |     18925 |      18925 |     1.0000 |     0.0000 |      1.0000 |      1.0000 |
MCFTDepositCreatorSUCCESS Number of counters : 2
 |    Counter                                      |     #     |    sum     | mean/eff^* | rms/err^*  |     min     |     max     |
 | "NbOfMCHits"                                    |        10 |      52382 |     5238.2 |     1470.4 |      2380.0 |      7325.0 |
 | "NbOfMissedMCHits"                              |         2 |          2 |     1.0000 |     0.0000 |      1.0000 |      1.0000 |
MCFTDepositMonitorSUCCESS Booked 29 Histogram(s) : 1D=29
FTLiteClusterMo...   INFO  --------FT Lite clusters------------
FTLiteClusterMo...   INFO Cluster efficiency  = ( 91.2 +/-  0.8 )%
FTLiteClusterMo...   INFO Cluster efficiency p>5GeV = ( 96.6 +/-  0.6 )%
FTLiteClusterMo...   INFO  -------------------------------
FTLiteClusterMo...SUCCESS Booked 177 Histogram(s) : 1D=172 2D=3 1DProf=1 2DProf=1
MCUTDepositMonitorSUCCESS Booked 4 Histogram(s) : 1D=4
MCUTDigitMonitor  SUCCESS Booked 4 Histogram(s) : 1D=4
UTDigitMonitor    SUCCESS Booked 4 Histogram(s) : 1D=4
UTClusterMonitor  SUCCESS Booked 15 Histogram(s) : 1D=10 2D=4 1DProf=1
UTClusterMonitor  SUCCESS Number of counters : 1
 |    Counter                                      |     #     |    sum     | mean/eff^* | rms/err^*  |     min     |     max     |
 | "Number of events"                              |        10 |         10 |     1.0000 |     0.0000 |      1.0000 |      1.0000 |
UTEffChecker         INFO  -------Efficiency %---------
UTEffChecker         INFO UTaX eff 99.3083 +/- 0.260532
UTEffChecker         INFO UTaU eff 99.4059 +/- 0.241802
UTEffChecker         INFO UTbV eff 99.1228 +/- 0.291112
UTEffChecker         INFO UTbX eff 99.9022 +/- 0.0977995
UTEffChecker         INFO  -----------------------
UTEffChecker      SUCCESS Booked 24 Histogram(s) : 1D=16 2D=8
FSROutputStream...   INFO Set up File Summary Record
FSROutputStream...   INFO Events output: 1
DigiWriter           INFO Events output: 10
EventLoopMgr         INFO Histograms converted successfully according to request.
RootCnvSvc           INFO Disconnected data IO:0CB41F80-D90E-E811-BE44-02163E01C208 [reprocess-10ev-Extended.digi]
RootCnvSvc           INFO Disconnected data IO:503F7ECD-5FFF-E611-867D-00221942CC05 [root://eoslhcb.cern.ch//eos/lhcb/grid/prod/lhcb/swtest/lhcb/swtest/SciFi-v61/Brunel-13104012-100ev-20170301.xdst]
ToolSvc              INFO Removing all tools created by ToolSvc
BooleInit.Boole...SUCCESS Booked 4 Histogram(s) : 1D=4
BooleInit.Boole...SUCCESS Number of counters : 2
 |    Counter                                      |     #     |    sum     | mean/eff^* | rms/err^*  |     min     |     max     |
 | "Delta Memory/MB"                               |         1 |      8.676 |     8.6760 | 7.4645e-08 |      8.6760 |      8.6760 |
 | "Total Memory/MB"                               |        10 |   13856.12 |     1385.6 |     50.012 |      1236.1 |      1411.3 |
TimingAuditor.T...   INFO --------------------------------------------------------------------------------------------------
TimingAuditor.T...   INFO This machine has a speed about   2.70 times the speed of a 2.8 GHz Xeon.
TimingAuditor.T...   INFO Algorithm          (millisec) |    <user> |   <clock> |      min       max    sigma | entries | total (s) |
TimingAuditor.T...   INFO --------------------------------------------------------------------------------------------------
TimingAuditor.T...   INFO EVENT LOOP                    |  3135.000 |  3158.518 |  943.165    4371.1  1061.83 |      10 |    31.585 |
TimingAuditor.T...   INFO  BooleSequencer               |  1734.000 |  1758.638 |  936.765    2529.9   565.75 |      10 |    17.586 |
TimingAuditor.T...   INFO   Init                        |   127.000 |   147.735 |   33.927     239.2    56.65 |      10 |     1.477 |
TimingAuditor.T...   INFO    InitBooleSeq               |    96.000 |   112.823 |   23.878     200.6    46.12 |      10 |     1.128 |
TimingAuditor.T...   INFO     XDSTLoverHandler          |    96.000 |   112.039 |   23.348     199.3    45.86 |      10 |     1.120 |
TimingAuditor.T...   INFO      XDSTLoader               |    96.000 |   111.668 |   23.102     198.9    45.81 |      10 |     1.117 |
TimingAuditor.T...   INFO      XDSTKiller               |     0.000 |     0.338 |    0.210       0.5     0.10 |      10 |     0.003 |
TimingAuditor.T...   INFO     BooleInit                 |     0.000 |     0.731 |    0.432       2.2     0.58 |      10 |     0.007 |
TimingAuditor.T...   INFO     SpilloverHandler          |     0.000 |     0.030 |    0.026       0.0     0.00 |      10 |     0.000 |
TimingAuditor.T...   INFO      SpilloverLoader          |     0.000 |     0.005 |    0.004       0.0     0.00 |      10 |     0.000 |
TimingAuditor.T...   INFO      SpilloverKiller          |     0.000 |     0.016 |    0.013       0.0     0.01 |      10 |     0.000 |
TimingAuditor.T...   INFO    InitDataSeq                |     0.000 |     0.005 |    0.002       0.0     0.01 |      10 |     0.000 |
TimingAuditor.T...   INFO    InitMuonSeq                |    31.000 |    34.895 |   10.015      60.0    13.47 |      10 |     0.349 |
TimingAuditor.T...   INFO     MuonLowEnergy             |    27.000 |    32.614 |    8.105      56.6    13.10 |      10 |     0.326 |
TimingAuditor.T...   INFO     MuonFlatSpillover         |     4.000 |     2.252 |    1.700       3.4     0.61 |      10 |     0.023 |
TimingAuditor.T...   INFO   Digi                        |  1513.000 |  1517.216 |  738.897    2201.5   492.89 |      10 |    15.172 |
TimingAuditor.T...   INFO    DigiVPSeq                  |   358.000 |   357.580 |  186.177     525.0   126.88 |      10 |     3.576 |
TimingAuditor.T...   INFO     VPDepositCreator          |   353.000 |   354.431 |  184.512     520.6   125.82 |      10 |     3.544 |
TimingAuditor.T...   INFO     VPDigitCreator            |     4.000 |     2.559 |    1.275       3.9     0.93 |      10 |     0.026 |
TimingAuditor.T...   INFO     VPSuperPixelBankEncoder   |     1.000 |     0.528 |    0.306       0.9     0.19 |      10 |     0.005 |
TimingAuditor.T...   INFO    DigiUTSeq                  |    60.000 |    62.685 |   44.790      93.2    16.68 |      10 |     0.627 |
TimingAuditor.T...   INFO     MCUTDepositCreator        |    36.000 |    39.782 |   24.500      65.8    12.98 |      10 |     0.398 |
TimingAuditor.T...   INFO     MCUTDigitCreator          |     6.000 |     2.649 |    1.360       4.4     0.92 |      10 |     0.026 |
TimingAuditor.T...   INFO     UTDigitCreator            |    15.000 |    14.041 |   11.554      17.6     2.00 |      10 |     0.140 |
TimingAuditor.T...   INFO     UTClusterCreator          |     1.000 |     4.430 |    3.244       6.3     1.04 |      10 |     0.044 |
TimingAuditor.T...   INFO     UTClusterKiller           |     0.000 |     0.611 |    0.332       1.3     0.26 |      10 |     0.006 |
TimingAuditor.T...   INFO     createUTRawBuffer         |     2.000 |     1.076 |    0.716       1.9     0.33 |      10 |     0.011 |
TimingAuditor.T...   INFO    DigiFTSeq                  |  1095.000 |  1096.930 |  507.586    1692.2   366.83 |      10 |    10.969 |
TimingAuditor.T...   INFO     FTMCHitSpillMerger        |    29.000 |    29.770 |    1.112      41.0    11.46 |      10 |     0.298 |
TimingAuditor.T...   INFO     MCFTDepositCreator        |   276.000 |   274.859 |  121.742     413.1    91.80 |      10 |     2.749 |
TimingAuditor.T...   INFO     MCFTDigitCreator          |    25.000 |    25.860 |   11.541      37.6     8.45 |      10 |     0.259 |
TimingAuditor.T...   INFO     FTClusterCreator          |    34.000 |    31.724 |    9.283      51.9    13.91 |      10 |     0.317 |
TimingAuditor.T...   INFO     FTRawBankEncoder          |     0.000 |     0.912 |    0.511       1.5     0.32 |      10 |     0.009 |
TimingAuditor.T...   INFO     FTRawBankDecoder          |     0.000 |     0.466 |    0.245       0.7     0.17 |      10 |     0.005 |
TimingAuditor.T...   INFO     MCFTDepositMonitor        |   655.000 |   655.446 |  295.014    1024.0   222.78 |      10 |     6.554 |
TimingAuditor.T...   INFO     FTLiteClusterMonitor      |    76.000 |    77.698 |   35.303     122.6    24.74 |      10 |     0.777 |
TimingAuditor.T...   INFO   Link                        |    70.000 |    70.181 |   27.365     117.9    27.24 |      10 |     0.702 |
TimingAuditor.T...   INFO    LinkVPSeq                  |    45.000 |    45.041 |    9.414      69.9    18.16 |      10 |     0.450 |
TimingAuditor.T...   INFO     VPDigitLinker             |    45.000 |    45.015 |    9.392      69.9    18.16 |      10 |     0.450 |
TimingAuditor.T...   INFO    LinkUTSeq                  |    23.000 |    21.624 |   10.962      41.0     8.76 |      10 |     0.216 |
TimingAuditor.T...   INFO     UTDigitLinker             |    12.000 |    13.446 |    7.306      24.2     4.99 |      10 |     0.134 |
TimingAuditor.T...   INFO     UTClusterLinker           |     8.000 |     5.044 |    2.204       9.9     2.24 |      10 |     0.050 |
TimingAuditor.T...   INFO     UTTruthLinker             |     2.000 |     3.081 |    1.419       6.8     1.55 |      10 |     0.031 |
TimingAuditor.T...   INFO    LinkFTSeq                  |     0.000 |     0.002 |    0.002       0.0     0.00 |      10 |     0.000 |
TimingAuditor.T...   INFO    LinkTrSeq                  |     2.000 |     3.480 |    1.460       6.9     1.66 |      10 |     0.035 |
TimingAuditor.T...   INFO     BuildMCTrackInfo          |     2.000 |     3.462 |    1.435       6.9     1.66 |      10 |     0.035 |
TimingAuditor.T...   INFO   Moni                        |    24.000 |    23.470 |   12.835      33.7     7.01 |      10 |     0.235 |
TimingAuditor.T...   INFO    MoniVPSeq                  |     0.000 |     0.002 |    0.002       0.0     0.00 |      10 |     0.000 |
TimingAuditor.T...   INFO    MoniUTSeq                  |    24.000 |    23.444 |   12.815      33.7     7.01 |      10 |     0.234 |
TimingAuditor.T...   INFO     MCUTDepositMonitor        |     3.000 |     3.039 |    1.581       4.4     0.97 |      10 |     0.030 |
TimingAuditor.T...   INFO     MCUTDigitMonitor          |     4.000 |     3.056 |    1.620       4.3     0.88 |      10 |     0.031 |
TimingAuditor.T...   INFO     UTDigitMonitor            |     6.000 |     5.970 |    4.585       7.1     0.89 |      10 |     0.060 |
TimingAuditor.T...   INFO     UTClusterMonitor          |     1.000 |     2.232 |    1.254       3.2     0.60 |      10 |     0.022 |
TimingAuditor.T...   INFO     MCP2UTMCHitAlg            |     1.000 |     0.861 |    0.269       1.5     0.43 |      10 |     0.009 |
TimingAuditor.T...   INFO     UTEffChecker              |     9.000 |     8.218 |    3.455      13.9     3.38 |      10 |     0.082 |
TimingAuditor.T...   INFO    MoniFTSeq                  |     0.000 |     0.009 |    0.005       0.0     0.01 |      10 |     0.000 |
TimingAuditor.T...   INFO   Filter                      |     0.000 |     0.002 |    0.002       0.0     0.00 |      10 |     0.000 |
TimingAuditor.T...   INFO  PrepareDIGI                  |     0.000 |     0.045 |    0.036       0.1     0.01 |      10 |     0.000 |
TimingAuditor.T...   INFO   PackMCVertex                |     0.000 |     0.008 |    0.006       0.0     0.00 |      10 |     0.000 |
TimingAuditor.T...   INFO   PackMCParticle              |     0.000 |     0.003 |    0.003       0.0     0.00 |      10 |     0.000 |
TimingAuditor.T...   INFO   MCVPHitPacker               |     0.000 |     0.006 |    0.004       0.0     0.01 |      10 |     0.000 |
TimingAuditor.T...   INFO   MCUTHitPacker               |     0.000 |     0.003 |    0.003       0.0     0.00 |      10 |     0.000 |
TimingAuditor.T...   INFO   MCFTHitPacker               |     0.000 |     0.003 |    0.003       0.0     0.00 |      10 |     0.000 |
TimingAuditor.T...   INFO  FSROutputStreamDigiWriter    |     0.000 |     0.002 |    0.002       0.0     0.00 |      10 |     0.000 |
TimingAuditor.T...   INFO  DigiWriter                   |  1399.000 |  1398.337 |    6.240    1871.7   570.96 |      10 |    13.983 |
TimingAuditor.T...   INFO *     UnpackMCParticles       |    26.000 |    30.660 |    5.965      54.6    12.91 |      10 |     0.307 |
TimingAuditor.T...   INFO *     UnpackMCVPHits          |    16.000 |    16.691 |    0.699      33.2     8.47 |      10 |     0.167 |
TimingAuditor.T...   INFO *     UnpackMCUTHits          |     9.000 |    10.641 |    0.514      15.3     4.42 |      10 |     0.106 |
TimingAuditor.T...   INFO *     UnpackMCFTHits          |    29.000 |    29.599 |    1.038      40.9    11.39 |      10 |     0.296 |
TimingAuditor.T...   INFO *     UnpackMCVertices        |    35.000 |    34.337 |    3.850      50.5    13.39 |      10 |     0.343 |
TimingAuditor.T...   INFO --------------------------------------------------------------------------------------------------
DataOnDemandSvc      INFO Handled "DataFault" incidents: 50/20/505(Alg/Node/Total).
ApplicationMgr       INFO Application Manager Finalized successfully
ApplicationMgr       INFO Application Manager Terminated successfully
